<?xml version="1.0" encoding="iso-8859-1"?>
<!-- Generator: Adobe Illustrator 16.0.0, SVG Export Plug-In . SVG Version: 6.00 Build 0)  -->
<!DOCTYPE svg PUBLIC "-//W3C//DTD SVG 1.1//EN" "http://www.w3.org/Graphics/SVG/1.1/DTD/svg11.dtd">
<svg version="1.1" id="Capa_1" xmlns="http://www.w3.org/2000/svg" xmlns:xlink="http://www.w3.org/1999/xlink" x="0px" y="0px"
	 width="399.666px" height="399.666px" viewBox="0 0 399.666 399.666" style="enable-background:new 0 0 399.666 399.666;"
	 xml:space="preserve">
<g>
	<path d="M392.166,138.959c-4.143,0-7.5,3.358-7.5,7.5v27.631H109.745c3.781-4.422,5.938-9.575,5.938-15.128
		c0-16.894-19.86-30.127-45.215-30.127c-25.352,0-45.211,13.233-45.211,30.127c0,5.553,2.156,10.706,5.938,15.128H15V80.067
		c0-4.142-3.357-7.5-7.5-7.5S0,75.925,0,80.067V181.59v16.536v14.726v29.908v76.838c0,4.143,3.357,7.5,7.5,7.5s7.5-3.357,7.5-7.5
		v-69.338h369.666v69.338c0,4.143,3.357,7.5,7.5,7.5s7.5-3.357,7.5-7.5v-76.838v-61.17v-35.131
		C399.666,142.317,396.309,138.959,392.166,138.959z M40.258,158.962c0-7.141,12.92-15.127,30.211-15.127
		c17.293,0,30.215,7.986,30.215,15.127c0,7.141-12.922,15.128-30.215,15.128C53.178,174.09,40.258,166.104,40.258,158.962z
		 M15,235.261v-22.408v-14.726v-9.036h369.666v46.17H15L15,235.261z"/>
</g>
<g>
</g>
<g>
</g>
<g>
</g>
<g>
</g>
<g>
</g>
<g>
</g>
<g>
</g>
<g>
</g>
<g>
</g>
<g>
</g>
<g>
</g>
<g>
</g>
<g>
</g>
<g>
</g>
<g>
</g>
</svg>
